<?xml version="1.0" encoding="utf-8"?>
<!-- Generator: Adobe Illustrator 15.0.2, SVG Export Plug-In . SVG Version: 6.00 Build 0)  -->
<!DOCTYPE svg PUBLIC "-//W3C//DTD SVG 1.1//EN" "http://www.w3.org/Graphics/SVG/1.1/DTD/svg11.dtd">
<svg version="1.1" id="Calque_1" xmlns="http://www.w3.org/2000/svg" xmlns:xlink="http://www.w3.org/1999/xlink" x="0px" y="0px"
	 width="24px" height="24px" viewBox="0 0 24 24" enable-background="new 0 0 24 24" xml:space="preserve">
<g>
	<path d="M12.001,22.994c-0.003,0-0.005,0-0.008,0C5.929,22.991,0.997,18.054,1,11.988c0.001-2.938,1.147-5.7,3.226-7.776
		C6.304,2.137,9.064,0.994,12,0.994c0.002,0,0.004,0,0.006,0c1.55,0.001,3.055,0.321,4.471,0.952
		c0.504,0.225,0.731,0.816,0.506,1.32c-0.224,0.504-0.813,0.73-1.32,0.507c-1.158-0.516-2.39-0.778-3.658-0.779
		c-0.002,0-0.003,0-0.005,0c-4.961,0-8.998,4.034-9,8.995c-0.002,4.963,4.032,9.002,8.995,9.005c0.002,0,0.004,0,0.007,0
		c2.402,0,4.66-0.935,6.359-2.632C20.062,16.663,20.999,14.403,21,12V11.08c0-0.552,0.447-1,1-1s1,0.448,1,1V12
		c-0.002,2.939-1.147,5.701-3.226,7.777C17.697,21.852,14.937,22.994,12.001,22.994z"/>
</g>
<g>
	<path d="M12,15.01c-0.265,0-0.52-0.105-0.707-0.293l-3-3c-0.391-0.391-0.391-1.023,0-1.414s1.023-0.391,1.414,0L12,12.595
		l9.293-9.301c0.391-0.392,1.023-0.391,1.414-0.001c0.391,0.391,0.391,1.023,0,1.414l-10,10.01C12.52,14.904,12.266,15.01,12,15.01z
		"/>
</g>
</svg>
